{
  "name": "base",
  "base": "PersistedModel",
  "idInjection": true,
  "options": {
    "validateUpsert": true
  },
  "mixins": {
    "Common": true
  },
  "properties": {
    "id": {
      "type": "string",
      "id": true,
      "defaultFn": "uuid"
    }
  },
  "validations": [],
  "relations": {},
  "acls": [],
  "methods": {}
}
