{
  "name": "bodyPartLanguages",
  "base": "PersistedModel",
  "idInjection": true,
  "options": {
    "validateUpsert": true
  },
  "properties": {
    "id": {
      "type": "string",
      "id": true,
      "defaultFn": "uuid"
    },
    "langISO": {
      "type": "string",
      "required": true
    },
    "name": {
      "type": "string",
      "required": true
    },
    "description": {
      "type": "string"
    },
    "urlReference": {
      "type": "string"
    }
  },
  "validations": [],
  "relations": {
    "detail": {
      "type": "embedsMany",
      "model": "languageDetail",
      "property": "details",
      "options": {
        "validate": true,
        "forceId": false
      }
    }
  },
  "acls": [],
  "methods": {}
}
