{
  "name": "companyNotificationsNotifyCustomerWhenCreditInvoice",
  "base": "PersistedModel",
  "idInjection": true,
  "options": {
    "validateUpsert": true
  },
  "properties": {
    "push": {
      "type": "boolean"
    },
    "mail": {
      "type": "boolean"
    }
  },
  "validations": [],
  "relations": {},
  "acls": [],
  "methods": {}
}
