{
  "name": "evaluationEvaluationsWorkoutRoutineCalendarWorkoutCategorySetsExercises",
  "base": "PersistedModel",
  "idInjection": true,
  "options": {
    "validateUpsert": true
  },
  "properties": {
    "basedOn": {
      "type": "string"
    },
    "quantity": {
      "type": "number"
    },
    "quantityOk": {
      "type": "boolean"
    },
    "quantityBad": {
      "type": "boolean"
    },
    "restInSeconds": {
      "type": "number"
    },
    "secondsRested": {
      "type": "number"
    },
    "notes": {
      "type": "string"
    },
    "dayNotes": {
      "type": "string"
    }
  },
  "validations": [],
  "relations": {
    "users": {
      "type": "belongsTo",
      "model": "users",
      "foreignKey": "notesByUser"
    },
    "_exercise": {
      "type": "embedsOne",
      "model": "exercise",
      "property": "exercise",
      "options": {
        "validate": true,
        "forceId": false
      }
    }
  },
  "acls": [],
  "methods": {}
}
