{
  "name": "languageDetail",
  "base": "PersistedModel",
  "idInjection": true,
  "options": {
    "validateUpsert": true
  },
  "properties": {
    "id": {
      "type": "string",
      "id": true,
      "defaultFn": "uuid"
    },
    "name": {
      "type": "string"
    },
    "description": {
      "type": "string"
    },
    "urlReference": {
      "type": "string"
    }
  },
  "validations": [],
  "relations": {},
  "acls": [],
  "methods": {}
}
