{
  "name": "users",
  "base": "User",
  "idInjection": true,
  "options": {
    "validateUpsert": true,
    "emailVerificationRequired": false
  },
  "properties": {
    "id": {
      "type": "string",
      "id": true,
      "defaultFn": "uuid"
    },
    "firstName": {
      "type": "string",
      "required": true
    },
    "lastName": {
      "type": "string",
      "required": true
    },
    "birthdate": {
      "type": "date"
    },
    "phoneNumber": {
      "type": "string"
    },
    "celphone": {
      "type": "string"
    },
    "documentNumber": {
      "type": "string"
    },
    "picture": {
      "type": "string"
    },
    "address": {
      "type": "string"
    },
    "location": {
      "type": "geopoint"
    },
    "locked": {
      "type": "boolean"
    },
    "active": {
      "type": "boolean"
    },
    "isCoach": {
      "type": "boolean"
    },
    "isOnlineCoach": {
      "type": "boolean"
    },
    "isEmployee": {
      "type": "boolean"
    },
    "isReceptionist": {
      "type": "boolean"
    },
    "isSalesman": {
      "type": "boolean"
    },
    "isSalesAdmin": {
      "type": "boolean"
    },
    "isSuperAdmin": {
      "type": "boolean"
    },
    "coachPercent": {
      "type": "number"
    },
    "facebookUrl": {
      "type": "string"
    },
    "instagramUrl": {
      "type": "string"
    },
    "youtubeUrl": {
      "type": "string"
    }
  },
  "validations": [],
  "relations": {
    "company": {
      "type": "belongsTo",
      "model": "company",
      "foreignKey": ""
    },
    "_membershipTypePrices": {
      "type": "embedsMany",
      "model": "userMembershipTypePrices",
      "property": "membershipTypePrices",
      "options": {
        "validate": true,
        "forceId": false
      }
    },
    "_healthInformation": {
      "type": "embedsMany",
      "model": "usersHealthInformation",
      "property": "healthInformation",
      "options": {
        "validate": true,
        "forceId": false
      }
    },
    "receipts": {
      "type": "hasMany",
      "model": "receipt",
      "foreignKey": ""
    },
    "invoices": {
      "type": "hasMany",
      "model": "invoice",
      "foreignKey": ""
    },
    "memberships": {
      "type": "hasMany",
      "model": "membership",
      "foreignKey": ""
    },
    "evaluationEvaluationsWorkoutRoutineCalendarWorkoutCategorySetsExercises": {
      "type": "hasOne",
      "model": "evaluationEvaluationsWorkoutRoutineCalendarWorkoutCategorySetsExercises",
      "foreignKey": ""
    },
    "evaluations": {
      "type": "hasMany",
      "model": "evaluation",
      "foreignKey": ""
    },
    "coachAssistant": {
      "type": "hasOne",
      "model": "users",
      "foreignKey": ""
    }
  },
  "acls": [
    {
      "accessType": "*",
      "principalType": "ROLE",
      "principalId": "$authenticated",
      "permission": "ALLOW",
      "property": "*"
    }
  ],
  "methods": {}
}
